<?xml version="1.0" encoding="UTF-8" standalone="no"?>
<!-- Created with Inkscape (http://www.inkscape.org/) -->

<svg
   width="105mm"
   height="148mm"
   viewBox="0 0 105 148"
   version="1.1"
   id="svg1"
   inkscape:export-filename="hintingappgrid2.png"
   inkscape:export-xdpi="96"
   inkscape:export-ydpi="96"
   inkscape:version="1.3.2 (091e20ef0f, 2023-11-25)"
   sodipodi:docname="hintingappgrid2.svg"
   xmlns:inkscape="http://www.inkscape.org/namespaces/inkscape"
   xmlns:sodipodi="http://sodipodi.sourceforge.net/DTD/sodipodi-0.dtd"
   xmlns="http://www.w3.org/2000/svg"
   xmlns:svg="http://www.w3.org/2000/svg">
  <sodipodi:namedview
     id="namedview1"
     pagecolor="#ffffff"
     bordercolor="#000000"
     borderopacity="0.25"
     inkscape:showpageshadow="2"
     inkscape:pageopacity="0.0"
     inkscape:pagecheckerboard="0"
     inkscape:deskcolor="#d1d1d1"
     inkscape:document-units="mm"
     inkscape:zoom="1.1456369"
     inkscape:cx="216.90991"
     inkscape:cy="236.1132"
     inkscape:window-width="1536"
     inkscape:window-height="891"
     inkscape:window-x="0"
     inkscape:window-y="0"
     inkscape:window-maximized="1"
     inkscape:current-layer="layer1" />
  <defs
     id="defs1" />
  <g
     inkscape:label="Layer 1"
     inkscape:groupmode="layer"
     id="layer1">
    <text
       xml:space="preserve"
       style="font-style:normal;font-variant:normal;font-weight:bold;font-stretch:normal;font-size:121.108px;font-family:Cantarell;-inkscape-font-specification:'Cantarell, Bold';font-variant-ligatures:normal;font-variant-caps:normal;font-variant-numeric:normal;font-variant-east-asian:normal;fill:none;fill-opacity:0.113061;stroke:#000000;stroke-width:0.457725;stroke-linecap:round;stroke-miterlimit:10;stroke-opacity:1"
       x="19.308403"
       y="107.7647"
       id="text5"
       transform="scale(0.90277338,1.1076977)"><tspan
         sodipodi:role="line"
         id="tspan5"
         style="font-style:normal;font-variant:normal;font-weight:bold;font-stretch:normal;font-size:121.10799873px;font-family:Cantarell;-inkscape-font-specification:'Cantarell, Bold';font-variant-ligatures:normal;font-variant-caps:normal;font-variant-numeric:normal;font-variant-east-asian:normal;fill:none;stroke:#000000;stroke-width:0.457725;stroke-opacity:1"
         x="19.308403"
         y="107.7647">B</tspan></text>
    <path
       d="M 0,0 0,148 M 10.583333,0 l 0,148 M 21.166666,0 l 0,148 M 31.749999,0 l 0,148 M 42.333332,0 l 0,148 M 52.916665,0 l 0,148 M 63.499999,0 l 0,148 M 74.083332,0 l 0,148 M 84.666665,0 l 0,148 M 95.249998,0 l 0,148 M 0,0 105,0 M 0,10.583333 l 105,0 M 0,21.166666 l 105,0 M 0,31.749999 l 105,0 M 0,42.333332 l 105,0 M 0,52.916665 l 105,0 M 0,63.499999 l 105,0 M 0,74.083332 l 105,0 M 0,84.666665 l 105,0 M 0,95.249998 l 105,0 M 0,105.83333 l 105,0 m -105,10.58333 105,0 M 0,127 l 105,0 m -105,10.58333 105,0"
       style="fill:none;stroke:#000000;stroke-width:0.264583px;stroke-opacity:1"
       id="path3" />
    <path
       d="M 0,0 0,148 M 13.229166,0 l 0,148 M 26.458333,0 l 0,148 M 39.687499,0 l 0,148 M 52.916665,0 l 0,148 M 66.145832,0 l 0,148 M 79.374998,0 l 0,148 M 92.604165,0 l 0,148 M 0,0 105,0 M 0,13.229166 l 105,0 M 0,26.458333 l 105,0 M 0,39.687499 l 105,0 M 0,52.916665 l 105,0 M 0,66.145832 l 105,0 M 0,79.374998 l 105,0 M 0,92.604165 l 105,0 M 0,105.83333 l 105,0 M 0,119.0625 l 105,0 m -105,13.22916 105,0 m -105,13.22917 105,0"
       style="fill:none;stroke:#000000;stroke-width:0.264583px;stroke-opacity:0.27197722"
       id="path4" />
  </g>
</svg>
